<?xml version="1.0" encoding="utf-8" standalone="no"?>
<!DOCTYPE svg PUBLIC "-//W3C//DTD SVG 1.1//EN"
  "http://www.w3.org/Graphics/SVG/1.1/DTD/svg11.dtd">
<svg height="504pt" version="1.1" viewBox="0 0 1008 504" width="1008pt" xmlns="http://www.w3.org/2000/svg" xmlns:xlink="http://www.w3.org/1999/xlink">
 <metadata>
  <rdf:RDF xmlns:cc="http://creativecommons.org/ns#" xmlns:dc="http://purl.org/dc/elements/1.1/" xmlns:rdf="http://www.w3.org/1999/02/22-rdf-syntax-ns#">
   <cc:Work>
    <dc:type rdf:resource="http://purl.org/dc/dcmitype/StillImage"/>
    <dc:date>2021-12-06T15:35:17.006548</dc:date>
    <dc:format>image/svg+xml</dc:format>
    <dc:creator>
     <cc:Agent>
      <dc:title>Matplotlib v3.4.3, https://matplotlib.org/</dc:title>
     </cc:Agent>
    </dc:creator>
   </cc:Work>
  </rdf:RDF>
 </metadata>
 <defs>
  <style type="text/css">*{stroke-linecap:butt;stroke-linejoin:round;}</style>
 </defs>
 <g id="figure_1">
  <g id="patch_1">
   <path d="M 0 504 
L 1008 504 
L 1008 0 
L 0 0 
z
" style="fill:#ffffff;"/>
  </g>
  <g id="axes_1">
   <g id="patch_2">
    <path d="M 126 448.56 
L 907.2 448.56 
L 907.2 60.48 
L 126 60.48 
z
" style="fill:#ffffff;"/>
   </g>
   <g id="patch_3">
    <path clip-path="url(#pfe37a8dec5)" d="M 639.841181 448.56 
L 653.263387 448.56 
L 653.263387 436.49375 
L 639.841181 436.49375 
z
" style="fill:#ff944d;opacity:0.4;"/>
   </g>
   <g id="patch_4">
    <path clip-path="url(#pfe37a8dec5)" d="M 653.263387 448.56 
L 666.685593 448.56 
L 666.685593 416.383334 
L 653.263387 416.383334 
z
" style="fill:#ff944d;opacity:0.4;"/>
   </g>
   <g id="patch_5">
    <path clip-path="url(#pfe37a8dec5)" d="M 666.685593 448.56 
L 680.107799 448.56 
L 680.107799 385.547363 
L 666.685593 385.547363 
z
" style="fill:#ff944d;opacity:0.4;"/>
   </g>
   <g id="patch_6">
    <path clip-path="url(#pfe37a8dec5)" d="M 680.107799 448.56 
L 693.530005 448.56 
L 693.530005 374.821808 
L 680.107799 374.821808 
z
" style="fill:#ff944d;opacity:0.4;"/>
   </g>
   <g id="patch_7">
    <path clip-path="url(#pfe37a8dec5)" d="M 693.530005 448.56 
L 706.952211 448.56 
L 706.952211 370.799724 
L 693.530005 370.799724 
z
" style="fill:#ff944d;opacity:0.4;"/>
   </g>
   <g id="patch_8">
    <path clip-path="url(#pfe37a8dec5)" d="M 706.952211 448.56 
L 720.374417 448.56 
L 720.374417 390.91014 
L 706.952211 390.91014 
z
" style="fill:#ff944d;opacity:0.4;"/>
   </g>
   <g id="patch_9">
    <path clip-path="url(#pfe37a8dec5)" d="M 720.374417 448.56 
L 733.796623 448.56 
L 733.796623 396.272918 
L 720.374417 396.272918 
z
" style="fill:#ff944d;opacity:0.4;"/>
   </g>
   <g id="patch_10">
    <path clip-path="url(#pfe37a8dec5)" d="M 733.796623 448.56 
L 747.218829 448.56 
L 747.218829 404.317085 
L 733.796623 404.317085 
z
" style="fill:#ff944d;opacity:0.4;"/>
   </g>
   <g id="patch_11">
    <path clip-path="url(#pfe37a8dec5)" d="M 747.218829 448.56 
L 760.641035 448.56 
L 760.641035 416.383334 
L 747.218829 416.383334 
z
" style="fill:#ff944d;opacity:0.4;"/>
   </g>
   <g id="patch_12">
    <path clip-path="url(#pfe37a8dec5)" d="M 760.641035 448.56 
L 774.063241 448.56 
L 774.063241 432.471667 
L 760.641035 432.471667 
z
" style="fill:#ff944d;opacity:0.4;"/>
   </g>
   <g id="patch_13">
    <path clip-path="url(#pfe37a8dec5)" d="M 774.063241 448.56 
L 787.485446 448.56 
L 787.485446 445.878611 
L 774.063241 445.878611 
z
" style="fill:#ff944d;opacity:0.4;"/>
   </g>
   <g id="patch_14">
    <path clip-path="url(#pfe37a8dec5)" d="M 787.485446 448.56 
L 800.907652 448.56 
L 800.907652 447.219306 
L 787.485446 447.219306 
z
" style="fill:#ff944d;opacity:0.4;"/>
   </g>
   <g id="patch_15">
    <path clip-path="url(#pfe37a8dec5)" d="M 800.907652 448.56 
L 814.329858 448.56 
L 814.329858 445.878611 
L 800.907652 445.878611 
z
" style="fill:#ff944d;opacity:0.4;"/>
   </g>
   <g id="patch_16">
    <path clip-path="url(#pfe37a8dec5)" d="M 814.329858 448.56 
L 827.752064 448.56 
L 827.752064 448.56 
L 814.329858 448.56 
z
" style="fill:#ff944d;opacity:0.4;"/>
   </g>
   <g id="patch_17">
    <path clip-path="url(#pfe37a8dec5)" d="M 827.752064 448.56 
L 841.17427 448.56 
L 841.17427 447.219306 
L 827.752064 447.219306 
z
" style="fill:#ff944d;opacity:0.4;"/>
   </g>
   <g id="patch_18">
    <path clip-path="url(#pfe37a8dec5)" d="M 312.68351 448.56 
L 318.067518 448.56 
L 318.067518 438.533041 
L 312.68351 438.533041 
z
" style="fill:#ff99ff;opacity:0.4;"/>
   </g>
   <g id="patch_19">
    <path clip-path="url(#pfe37a8dec5)" d="M 318.067518 448.56 
L 323.451527 448.56 
L 323.451527 428.506082 
L 318.067518 428.506082 
z
" style="fill:#ff99ff;opacity:0.4;"/>
   </g>
   <g id="patch_20">
    <path clip-path="url(#pfe37a8dec5)" d="M 323.451527 448.56 
L 328.835535 448.56 
L 328.835535 441.875361 
L 323.451527 441.875361 
z
" style="fill:#ff99ff;opacity:0.4;"/>
   </g>
   <g id="patch_21">
    <path clip-path="url(#pfe37a8dec5)" d="M 328.835535 448.56 
L 334.219543 448.56 
L 334.219543 365.002007 
L 328.835535 365.002007 
z
" style="fill:#ff99ff;opacity:0.4;"/>
   </g>
   <g id="patch_22">
    <path clip-path="url(#pfe37a8dec5)" d="M 334.219543 448.56 
L 339.603551 448.56 
L 339.603551 341.605769 
L 334.219543 341.605769 
z
" style="fill:#ff99ff;opacity:0.4;"/>
   </g>
   <g id="patch_23">
    <path clip-path="url(#pfe37a8dec5)" d="M 339.603551 448.56 
L 344.987559 448.56 
L 344.987559 288.128653 
L 339.603551 288.128653 
z
" style="fill:#ff99ff;opacity:0.4;"/>
   </g>
   <g id="patch_24">
    <path clip-path="url(#pfe37a8dec5)" d="M 344.987559 448.56 
L 350.371567 448.56 
L 350.371567 294.813292 
L 344.987559 294.813292 
z
" style="fill:#ff99ff;opacity:0.4;"/>
   </g>
   <g id="patch_25">
    <path clip-path="url(#pfe37a8dec5)" d="M 350.371567 448.56 
L 355.755575 448.56 
L 355.755575 281.444013 
L 350.371567 281.444013 
z
" style="fill:#ff99ff;opacity:0.4;"/>
   </g>
   <g id="patch_26">
    <path clip-path="url(#pfe37a8dec5)" d="M 355.755575 448.56 
L 361.139583 448.56 
L 361.139583 284.786333 
L 355.755575 284.786333 
z
" style="fill:#ff99ff;opacity:0.4;"/>
   </g>
   <g id="patch_27">
    <path clip-path="url(#pfe37a8dec5)" d="M 361.139583 448.56 
L 366.523591 448.56 
L 366.523591 334.921129 
L 361.139583 334.921129 
z
" style="fill:#ff99ff;opacity:0.4;"/>
   </g>
   <g id="patch_28">
    <path clip-path="url(#pfe37a8dec5)" d="M 366.523591 448.56 
L 371.907599 448.56 
L 371.907599 395.082884 
L 366.523591 395.082884 
z
" style="fill:#ff99ff;opacity:0.4;"/>
   </g>
   <g id="patch_29">
    <path clip-path="url(#pfe37a8dec5)" d="M 371.907599 448.56 
L 377.291607 448.56 
L 377.291607 395.082884 
L 371.907599 395.082884 
z
" style="fill:#ff99ff;opacity:0.4;"/>
   </g>
   <g id="patch_30">
    <path clip-path="url(#pfe37a8dec5)" d="M 377.291607 448.56 
L 382.675615 448.56 
L 382.675615 408.452163 
L 377.291607 408.452163 
z
" style="fill:#ff99ff;opacity:0.4;"/>
   </g>
   <g id="patch_31">
    <path clip-path="url(#pfe37a8dec5)" d="M 382.675615 448.56 
L 388.059623 448.56 
L 388.059623 428.506082 
L 382.675615 428.506082 
z
" style="fill:#ff99ff;opacity:0.4;"/>
   </g>
   <g id="patch_32">
    <path clip-path="url(#pfe37a8dec5)" d="M 388.059623 448.56 
L 393.443632 448.56 
L 393.443632 438.533041 
L 388.059623 438.533041 
z
" style="fill:#ff99ff;opacity:0.4;"/>
   </g>
   <g id="patch_33">
    <path clip-path="url(#pfe37a8dec5)" d="M 393.443632 448.56 
L 398.82764 448.56 
L 398.82764 445.21768 
L 393.443632 445.21768 
z
" style="fill:#ff99ff;opacity:0.4;"/>
   </g>
   <g id="patch_34">
    <path clip-path="url(#pfe37a8dec5)" d="M 398.82764 448.56 
L 404.211648 448.56 
L 404.211648 445.21768 
L 398.82764 445.21768 
z
" style="fill:#ff99ff;opacity:0.4;"/>
   </g>
   <g id="patch_35">
    <path clip-path="url(#pfe37a8dec5)" d="M 169.013411 448.56 
L 172.032066 448.56 
L 172.032066 418.753548 
L 169.013411 418.753548 
z
" style="fill:#00e6e6;opacity:0.4;"/>
   </g>
   <g id="patch_36">
    <path clip-path="url(#pfe37a8dec5)" d="M 172.032066 448.56 
L 175.050721 448.56 
L 175.050721 406.830968 
L 172.032066 406.830968 
z
" style="fill:#00e6e6;opacity:0.4;"/>
   </g>
   <g id="patch_37">
    <path clip-path="url(#pfe37a8dec5)" d="M 175.050721 448.56 
L 178.069375 448.56 
L 178.069375 382.985806 
L 175.050721 382.985806 
z
" style="fill:#00e6e6;opacity:0.4;"/>
   </g>
   <g id="patch_38">
    <path clip-path="url(#pfe37a8dec5)" d="M 178.069375 448.56 
L 181.08803 448.56 
L 181.08803 347.218065 
L 178.069375 347.218065 
z
" style="fill:#00e6e6;opacity:0.4;"/>
   </g>
   <g id="patch_39">
    <path clip-path="url(#pfe37a8dec5)" d="M 181.08803 448.56 
L 184.106684 448.56 
L 184.106684 204.147097 
L 181.08803 204.147097 
z
" style="fill:#00e6e6;opacity:0.4;"/>
   </g>
   <g id="patch_40">
    <path clip-path="url(#pfe37a8dec5)" d="M 184.106684 448.56 
L 187.125339 448.56 
L 187.125339 132.611613 
L 184.106684 132.611613 
z
" style="fill:#00e6e6;opacity:0.4;"/>
   </g>
   <g id="patch_41">
    <path clip-path="url(#pfe37a8dec5)" d="M 187.125339 448.56 
L 190.143993 448.56 
L 190.143993 78.96 
L 187.125339 78.96 
z
" style="fill:#00e6e6;opacity:0.4;"/>
   </g>
   <g id="patch_42">
    <path clip-path="url(#pfe37a8dec5)" d="M 190.143993 448.56 
L 193.162648 448.56 
L 193.162648 227.992258 
L 190.143993 227.992258 
z
" style="fill:#00e6e6;opacity:0.4;"/>
   </g>
   <g id="patch_43">
    <path clip-path="url(#pfe37a8dec5)" d="M 193.162648 448.56 
L 196.181303 448.56 
L 196.181303 239.914839 
L 193.162648 239.914839 
z
" style="fill:#00e6e6;opacity:0.4;"/>
   </g>
   <g id="patch_44">
    <path clip-path="url(#pfe37a8dec5)" d="M 196.181303 448.56 
L 199.199957 448.56 
L 199.199957 257.79871 
L 196.181303 257.79871 
z
" style="fill:#00e6e6;opacity:0.4;"/>
   </g>
   <g id="patch_45">
    <path clip-path="url(#pfe37a8dec5)" d="M 199.199957 448.56 
L 202.218612 448.56 
L 202.218612 287.605161 
L 199.199957 287.605161 
z
" style="fill:#00e6e6;opacity:0.4;"/>
   </g>
   <g id="patch_46">
    <path clip-path="url(#pfe37a8dec5)" d="M 202.218612 448.56 
L 205.237266 448.56 
L 205.237266 382.985806 
L 202.218612 382.985806 
z
" style="fill:#00e6e6;opacity:0.4;"/>
   </g>
   <g id="patch_47">
    <path clip-path="url(#pfe37a8dec5)" d="M 205.237266 448.56 
L 208.255921 448.56 
L 208.255921 412.792258 
L 205.237266 412.792258 
z
" style="fill:#00e6e6;opacity:0.4;"/>
   </g>
   <g id="patch_48">
    <path clip-path="url(#pfe37a8dec5)" d="M 208.255921 448.56 
L 211.274576 448.56 
L 211.274576 424.714839 
L 208.255921 424.714839 
z
" style="fill:#00e6e6;opacity:0.4;"/>
   </g>
   <g id="patch_49">
    <path clip-path="url(#pfe37a8dec5)" d="M 211.274576 448.56 
L 214.29323 448.56 
L 214.29323 436.637419 
L 211.274576 436.637419 
z
" style="fill:#00e6e6;opacity:0.4;"/>
   </g>
   <g id="patch_50">
    <path clip-path="url(#pfe37a8dec5)" d="M 343.462761 448.56 
L 346.742169 448.56 
L 346.742169 437.585411 
L 343.462761 437.585411 
z
" style="fill:#33ff33;opacity:0.4;"/>
   </g>
   <g id="patch_51">
    <path clip-path="url(#pfe37a8dec5)" d="M 346.742169 448.56 
L 350.021577 448.56 
L 350.021577 443.072706 
L 346.742169 443.072706 
z
" style="fill:#33ff33;opacity:0.4;"/>
   </g>
   <g id="patch_52">
    <path clip-path="url(#pfe37a8dec5)" d="M 350.021577 448.56 
L 353.300984 448.56 
L 353.300984 404.661644 
L 350.021577 404.661644 
z
" style="fill:#33ff33;opacity:0.4;"/>
   </g>
   <g id="patch_53">
    <path clip-path="url(#pfe37a8dec5)" d="M 353.300984 448.56 
L 356.580392 448.56 
L 356.580392 371.737877 
L 353.300984 371.737877 
z
" style="fill:#33ff33;opacity:0.4;"/>
   </g>
   <g id="patch_54">
    <path clip-path="url(#pfe37a8dec5)" d="M 356.580392 448.56 
L 359.8598 448.56 
L 359.8598 278.453871 
L 356.580392 278.453871 
z
" style="fill:#33ff33;opacity:0.4;"/>
   </g>
   <g id="patch_55">
    <path clip-path="url(#pfe37a8dec5)" d="M 359.8598 448.56 
L 363.139208 448.56 
L 363.139208 240.042809 
L 359.8598 240.042809 
z
" style="fill:#33ff33;opacity:0.4;"/>
   </g>
   <g id="patch_56">
    <path clip-path="url(#pfe37a8dec5)" d="M 363.139208 448.56 
L 366.418616 448.56 
L 366.418616 207.119043 
L 363.139208 207.119043 
z
" style="fill:#33ff33;opacity:0.4;"/>
   </g>
   <g id="patch_57">
    <path clip-path="url(#pfe37a8dec5)" d="M 366.418616 448.56 
L 369.698023 448.56 
L 369.698023 163.220687 
L 366.418616 163.220687 
z
" style="fill:#33ff33;opacity:0.4;"/>
   </g>
   <g id="patch_58">
    <path clip-path="url(#pfe37a8dec5)" d="M 369.698023 448.56 
L 372.977431 448.56 
L 372.977431 245.530104 
L 369.698023 245.530104 
z
" style="fill:#33ff33;opacity:0.4;"/>
   </g>
   <g id="patch_59">
    <path clip-path="url(#pfe37a8dec5)" d="M 372.977431 448.56 
L 376.256839 448.56 
L 376.256839 168.707981 
L 372.977431 168.707981 
z
" style="fill:#33ff33;opacity:0.4;"/>
   </g>
   <g id="patch_60">
    <path clip-path="url(#pfe37a8dec5)" d="M 376.256839 448.56 
L 379.536247 448.56 
L 379.536247 278.453871 
L 376.256839 278.453871 
z
" style="fill:#33ff33;opacity:0.4;"/>
   </g>
   <g id="patch_61">
    <path clip-path="url(#pfe37a8dec5)" d="M 379.536247 448.56 
L 382.815655 448.56 
L 382.815655 322.352227 
L 379.536247 322.352227 
z
" style="fill:#33ff33;opacity:0.4;"/>
   </g>
   <g id="patch_62">
    <path clip-path="url(#pfe37a8dec5)" d="M 382.815655 448.56 
L 386.095063 448.56 
L 386.095063 399.17435 
L 382.815655 399.17435 
z
" style="fill:#33ff33;opacity:0.4;"/>
   </g>
   <g id="patch_63">
    <path clip-path="url(#pfe37a8dec5)" d="M 386.095063 448.56 
L 389.37447 448.56 
L 389.37447 432.098117 
L 386.095063 432.098117 
z
" style="fill:#33ff33;opacity:0.4;"/>
   </g>
   <g id="patch_64">
    <path clip-path="url(#pfe37a8dec5)" d="M 389.37447 448.56 
L 392.653878 448.56 
L 392.653878 443.072706 
L 389.37447 443.072706 
z
" style="fill:#33ff33;opacity:0.4;"/>
   </g>
   <g id="patch_65">
    <path clip-path="url(#pfe37a8dec5)" d="M 392.653878 448.56 
L 395.933286 448.56 
L 395.933286 421.123528 
L 392.653878 421.123528 
z
" style="fill:#33ff33;opacity:0.4;"/>
   </g>
   <g id="matplotlib.axis_1">
    <g id="xtick_1">
     <g id="line2d_1">
      <defs>
       <path d="M 0 0 
L 0 3.5 
" id="m1da9be8347" style="stroke:#000000;stroke-width:0.8;"/>
      </defs>
      <g>
       <use style="stroke:#000000;stroke-width:0.8;" x="170.752125" xlink:href="#m1da9be8347" y="448.56"/>
      </g>
     </g>
     <g id="text_1">
      <!-- 0.5 -->
      <g transform="translate(156.439313 469.237188)scale(0.18 -0.18)">
       <defs>
        <path d="M 2034 4250 
Q 1547 4250 1301 3770 
Q 1056 3291 1056 2328 
Q 1056 1369 1301 889 
Q 1547 409 2034 409 
Q 2525 409 2770 889 
Q 3016 1369 3016 2328 
Q 3016 3291 2770 3770 
Q 2525 4250 2034 4250 
z
M 2034 4750 
Q 2819 4750 3233 4129 
Q 3647 3509 3647 2328 
Q 3647 1150 3233 529 
Q 2819 -91 2034 -91 
Q 1250 -91 836 529 
Q 422 1150 422 2328 
Q 422 3509 836 4129 
Q 1250 4750 2034 4750 
z
" id="DejaVuSans-30" transform="scale(0.015625)"/>
        <path d="M 684 794 
L 1344 794 
L 1344 0 
L 684 0 
L 684 794 
z
" id="DejaVuSans-2e" transform="scale(0.015625)"/>
        <path d="M 691 4666 
L 3169 4666 
L 3169 4134 
L 1269 4134 
L 1269 2991 
Q 1406 3038 1543 3061 
Q 1681 3084 1819 3084 
Q 2600 3084 3056 2656 
Q 3513 2228 3513 1497 
Q 3513 744 3044 326 
Q 2575 -91 1722 -91 
Q 1428 -91 1123 -41 
Q 819 9 494 109 
L 494 744 
Q 775 591 1075 516 
Q 1375 441 1709 441 
Q 2250 441 2565 725 
Q 2881 1009 2881 1497 
Q 2881 1984 2565 2268 
Q 2250 2553 1709 2553 
Q 1456 2553 1204 2497 
Q 953 2441 691 2322 
L 691 4666 
z
" id="DejaVuSans-35" transform="scale(0.015625)"/>
       </defs>
       <use xlink:href="#DejaVuSans-30"/>
       <use x="63.623047" xlink:href="#DejaVuSans-2e"/>
       <use x="95.410156" xlink:href="#DejaVuSans-35"/>
      </g>
     </g>
    </g>
    <g id="xtick_2">
     <g id="line2d_2">
      <g>
       <use style="stroke:#000000;stroke-width:0.8;" x="269.389826" xlink:href="#m1da9be8347" y="448.56"/>
      </g>
     </g>
     <g id="text_2">
      <!-- 1.0 -->
      <g transform="translate(255.077014 469.237188)scale(0.18 -0.18)">
       <defs>
        <path d="M 794 531 
L 1825 531 
L 1825 4091 
L 703 3866 
L 703 4441 
L 1819 4666 
L 2450 4666 
L 2450 531 
L 3481 531 
L 3481 0 
L 794 0 
L 794 531 
z
" id="DejaVuSans-31" transform="scale(0.015625)"/>
       </defs>
       <use xlink:href="#DejaVuSans-31"/>
       <use x="63.623047" xlink:href="#DejaVuSans-2e"/>
       <use x="95.410156" xlink:href="#DejaVuSans-30"/>
      </g>
     </g>
    </g>
    <g id="xtick_3">
     <g id="line2d_3">
      <g>
       <use style="stroke:#000000;stroke-width:0.8;" x="368.027527" xlink:href="#m1da9be8347" y="448.56"/>
      </g>
     </g>
     <g id="text_3">
      <!-- 1.5 -->
      <g transform="translate(353.714715 469.237188)scale(0.18 -0.18)">
       <use xlink:href="#DejaVuSans-31"/>
       <use x="63.623047" xlink:href="#DejaVuSans-2e"/>
       <use x="95.410156" xlink:href="#DejaVuSans-35"/>
      </g>
     </g>
    </g>
    <g id="xtick_4">
     <g id="line2d_4">
      <g>
       <use style="stroke:#000000;stroke-width:0.8;" x="466.665228" xlink:href="#m1da9be8347" y="448.56"/>
      </g>
     </g>
     <g id="text_4">
      <!-- 2.0 -->
      <g transform="translate(452.352416 469.237188)scale(0.18 -0.18)">
       <defs>
        <path d="M 1228 531 
L 3431 531 
L 3431 0 
L 469 0 
L 469 531 
Q 828 903 1448 1529 
Q 2069 2156 2228 2338 
Q 2531 2678 2651 2914 
Q 2772 3150 2772 3378 
Q 2772 3750 2511 3984 
Q 2250 4219 1831 4219 
Q 1534 4219 1204 4116 
Q 875 4013 500 3803 
L 500 4441 
Q 881 4594 1212 4672 
Q 1544 4750 1819 4750 
Q 2544 4750 2975 4387 
Q 3406 4025 3406 3419 
Q 3406 3131 3298 2873 
Q 3191 2616 2906 2266 
Q 2828 2175 2409 1742 
Q 1991 1309 1228 531 
z
" id="DejaVuSans-32" transform="scale(0.015625)"/>
       </defs>
       <use xlink:href="#DejaVuSans-32"/>
       <use x="63.623047" xlink:href="#DejaVuSans-2e"/>
       <use x="95.410156" xlink:href="#DejaVuSans-30"/>
      </g>
     </g>
    </g>
    <g id="xtick_5">
     <g id="line2d_5">
      <g>
       <use style="stroke:#000000;stroke-width:0.8;" x="565.302929" xlink:href="#m1da9be8347" y="448.56"/>
      </g>
     </g>
     <g id="text_5">
      <!-- 2.5 -->
      <g transform="translate(550.990117 469.237188)scale(0.18 -0.18)">
       <use xlink:href="#DejaVuSans-32"/>
       <use x="63.623047" xlink:href="#DejaVuSans-2e"/>
       <use x="95.410156" xlink:href="#DejaVuSans-35"/>
      </g>
     </g>
    </g>
    <g id="xtick_6">
     <g id="line2d_6">
      <g>
       <use style="stroke:#000000;stroke-width:0.8;" x="663.94063" xlink:href="#m1da9be8347" y="448.56"/>
      </g>
     </g>
     <g id="text_6">
      <!-- 3.0 -->
      <g transform="translate(649.627818 469.237188)scale(0.18 -0.18)">
       <defs>
        <path d="M 2597 2516 
Q 3050 2419 3304 2112 
Q 3559 1806 3559 1356 
Q 3559 666 3084 287 
Q 2609 -91 1734 -91 
Q 1441 -91 1130 -33 
Q 819 25 488 141 
L 488 750 
Q 750 597 1062 519 
Q 1375 441 1716 441 
Q 2309 441 2620 675 
Q 2931 909 2931 1356 
Q 2931 1769 2642 2001 
Q 2353 2234 1838 2234 
L 1294 2234 
L 1294 2753 
L 1863 2753 
Q 2328 2753 2575 2939 
Q 2822 3125 2822 3475 
Q 2822 3834 2567 4026 
Q 2313 4219 1838 4219 
Q 1578 4219 1281 4162 
Q 984 4106 628 3988 
L 628 4550 
Q 988 4650 1302 4700 
Q 1616 4750 1894 4750 
Q 2613 4750 3031 4423 
Q 3450 4097 3450 3541 
Q 3450 3153 3228 2886 
Q 3006 2619 2597 2516 
z
" id="DejaVuSans-33" transform="scale(0.015625)"/>
       </defs>
       <use xlink:href="#DejaVuSans-33"/>
       <use x="63.623047" xlink:href="#DejaVuSans-2e"/>
       <use x="95.410156" xlink:href="#DejaVuSans-30"/>
      </g>
     </g>
    </g>
    <g id="xtick_7">
     <g id="line2d_7">
      <g>
       <use style="stroke:#000000;stroke-width:0.8;" x="762.578331" xlink:href="#m1da9be8347" y="448.56"/>
      </g>
     </g>
     <g id="text_7">
      <!-- 3.5 -->
      <g transform="translate(748.265519 469.237188)scale(0.18 -0.18)">
       <use xlink:href="#DejaVuSans-33"/>
       <use x="63.623047" xlink:href="#DejaVuSans-2e"/>
       <use x="95.410156" xlink:href="#DejaVuSans-35"/>
      </g>
     </g>
    </g>
    <g id="xtick_8">
     <g id="line2d_8">
      <g>
       <use style="stroke:#000000;stroke-width:0.8;" x="861.216032" xlink:href="#m1da9be8347" y="448.56"/>
      </g>
     </g>
     <g id="text_8">
      <!-- 4.0 -->
      <g transform="translate(846.90322 469.237188)scale(0.18 -0.18)">
       <defs>
        <path d="M 2419 4116 
L 825 1625 
L 2419 1625 
L 2419 4116 
z
M 2253 4666 
L 3047 4666 
L 3047 1625 
L 3713 1625 
L 3713 1100 
L 3047 1100 
L 3047 0 
L 2419 0 
L 2419 1100 
L 313 1100 
L 313 1709 
L 2253 4666 
z
" id="DejaVuSans-34" transform="scale(0.015625)"/>
       </defs>
       <use xlink:href="#DejaVuSans-34"/>
       <use x="63.623047" xlink:href="#DejaVuSans-2e"/>
       <use x="95.410156" xlink:href="#DejaVuSans-30"/>
      </g>
     </g>
    </g>
    <g id="text_9">
     <!-- Mean waiting time -->
     <g transform="translate(433.202344 490.657812)scale(0.18 -0.18)">
      <defs>
       <path d="M 628 4666 
L 1569 4666 
L 2759 1491 
L 3956 4666 
L 4897 4666 
L 4897 0 
L 4281 0 
L 4281 4097 
L 3078 897 
L 2444 897 
L 1241 4097 
L 1241 0 
L 628 0 
L 628 4666 
z
" id="DejaVuSans-4d" transform="scale(0.015625)"/>
       <path d="M 3597 1894 
L 3597 1613 
L 953 1613 
Q 991 1019 1311 708 
Q 1631 397 2203 397 
Q 2534 397 2845 478 
Q 3156 559 3463 722 
L 3463 178 
Q 3153 47 2828 -22 
Q 2503 -91 2169 -91 
Q 1331 -91 842 396 
Q 353 884 353 1716 
Q 353 2575 817 3079 
Q 1281 3584 2069 3584 
Q 2775 3584 3186 3129 
Q 3597 2675 3597 1894 
z
M 3022 2063 
Q 3016 2534 2758 2815 
Q 2500 3097 2075 3097 
Q 1594 3097 1305 2825 
Q 1016 2553 972 2059 
L 3022 2063 
z
" id="DejaVuSans-65" transform="scale(0.015625)"/>
       <path d="M 2194 1759 
Q 1497 1759 1228 1600 
Q 959 1441 959 1056 
Q 959 750 1161 570 
Q 1363 391 1709 391 
Q 2188 391 2477 730 
Q 2766 1069 2766 1631 
L 2766 1759 
L 2194 1759 
z
M 3341 1997 
L 3341 0 
L 2766 0 
L 2766 531 
Q 2569 213 2275 61 
Q 1981 -91 1556 -91 
Q 1019 -91 701 211 
Q 384 513 384 1019 
Q 384 1609 779 1909 
Q 1175 2209 1959 2209 
L 2766 2209 
L 2766 2266 
Q 2766 2663 2505 2880 
Q 2244 3097 1772 3097 
Q 1472 3097 1187 3025 
Q 903 2953 641 2809 
L 641 3341 
Q 956 3463 1253 3523 
Q 1550 3584 1831 3584 
Q 2591 3584 2966 3190 
Q 3341 2797 3341 1997 
z
" id="DejaVuSans-61" transform="scale(0.015625)"/>
       <path d="M 3513 2113 
L 3513 0 
L 2938 0 
L 2938 2094 
Q 2938 2591 2744 2837 
Q 2550 3084 2163 3084 
Q 1697 3084 1428 2787 
Q 1159 2491 1159 1978 
L 1159 0 
L 581 0 
L 581 3500 
L 1159 3500 
L 1159 2956 
Q 1366 3272 1645 3428 
Q 1925 3584 2291 3584 
Q 2894 3584 3203 3211 
Q 3513 2838 3513 2113 
z
" id="DejaVuSans-6e" transform="scale(0.015625)"/>
       <path id="DejaVuSans-20" transform="scale(0.015625)"/>
       <path d="M 269 3500 
L 844 3500 
L 1563 769 
L 2278 3500 
L 2956 3500 
L 3675 769 
L 4391 3500 
L 4966 3500 
L 4050 0 
L 3372 0 
L 2619 2869 
L 1863 0 
L 1184 0 
L 269 3500 
z
" id="DejaVuSans-77" transform="scale(0.015625)"/>
       <path d="M 603 3500 
L 1178 3500 
L 1178 0 
L 603 0 
L 603 3500 
z
M 603 4863 
L 1178 4863 
L 1178 4134 
L 603 4134 
L 603 4863 
z
" id="DejaVuSans-69" transform="scale(0.015625)"/>
       <path d="M 1172 4494 
L 1172 3500 
L 2356 3500 
L 2356 3053 
L 1172 3053 
L 1172 1153 
Q 1172 725 1289 603 
Q 1406 481 1766 481 
L 2356 481 
L 2356 0 
L 1766 0 
Q 1100 0 847 248 
Q 594 497 594 1153 
L 594 3053 
L 172 3053 
L 172 3500 
L 594 3500 
L 594 4494 
L 1172 4494 
z
" id="DejaVuSans-74" transform="scale(0.015625)"/>
       <path d="M 2906 1791 
Q 2906 2416 2648 2759 
Q 2391 3103 1925 3103 
Q 1463 3103 1205 2759 
Q 947 2416 947 1791 
Q 947 1169 1205 825 
Q 1463 481 1925 481 
Q 2391 481 2648 825 
Q 2906 1169 2906 1791 
z
M 3481 434 
Q 3481 -459 3084 -895 
Q 2688 -1331 1869 -1331 
Q 1566 -1331 1297 -1286 
Q 1028 -1241 775 -1147 
L 775 -588 
Q 1028 -725 1275 -790 
Q 1522 -856 1778 -856 
Q 2344 -856 2625 -561 
Q 2906 -266 2906 331 
L 2906 616 
Q 2728 306 2450 153 
Q 2172 0 1784 0 
Q 1141 0 747 490 
Q 353 981 353 1791 
Q 353 2603 747 3093 
Q 1141 3584 1784 3584 
Q 2172 3584 2450 3431 
Q 2728 3278 2906 2969 
L 2906 3500 
L 3481 3500 
L 3481 434 
z
" id="DejaVuSans-67" transform="scale(0.015625)"/>
       <path d="M 3328 2828 
Q 3544 3216 3844 3400 
Q 4144 3584 4550 3584 
Q 5097 3584 5394 3201 
Q 5691 2819 5691 2113 
L 5691 0 
L 5113 0 
L 5113 2094 
Q 5113 2597 4934 2840 
Q 4756 3084 4391 3084 
Q 3944 3084 3684 2787 
Q 3425 2491 3425 1978 
L 3425 0 
L 2847 0 
L 2847 2094 
Q 2847 2600 2669 2842 
Q 2491 3084 2119 3084 
Q 1678 3084 1418 2786 
Q 1159 2488 1159 1978 
L 1159 0 
L 581 0 
L 581 3500 
L 1159 3500 
L 1159 2956 
Q 1356 3278 1631 3431 
Q 1906 3584 2284 3584 
Q 2666 3584 2933 3390 
Q 3200 3197 3328 2828 
z
" id="DejaVuSans-6d" transform="scale(0.015625)"/>
      </defs>
      <use xlink:href="#DejaVuSans-4d"/>
      <use x="86.279297" xlink:href="#DejaVuSans-65"/>
      <use x="147.802734" xlink:href="#DejaVuSans-61"/>
      <use x="209.082031" xlink:href="#DejaVuSans-6e"/>
      <use x="272.460938" xlink:href="#DejaVuSans-20"/>
      <use x="304.248047" xlink:href="#DejaVuSans-77"/>
      <use x="386.035156" xlink:href="#DejaVuSans-61"/>
      <use x="447.314453" xlink:href="#DejaVuSans-69"/>
      <use x="475.097656" xlink:href="#DejaVuSans-74"/>
      <use x="514.306641" xlink:href="#DejaVuSans-69"/>
      <use x="542.089844" xlink:href="#DejaVuSans-6e"/>
      <use x="605.46875" xlink:href="#DejaVuSans-67"/>
      <use x="668.945312" xlink:href="#DejaVuSans-20"/>
      <use x="700.732422" xlink:href="#DejaVuSans-74"/>
      <use x="739.941406" xlink:href="#DejaVuSans-69"/>
      <use x="767.724609" xlink:href="#DejaVuSans-6d"/>
      <use x="865.136719" xlink:href="#DejaVuSans-65"/>
     </g>
    </g>
   </g>
   <g id="matplotlib.axis_2">
    <g id="ytick_1">
     <g id="line2d_9">
      <defs>
       <path d="M 0 0 
L -3.5 0 
" id="mcd91b1c0c3" style="stroke:#000000;stroke-width:0.8;"/>
      </defs>
      <g>
       <use style="stroke:#000000;stroke-width:0.8;" x="126" xlink:href="#mcd91b1c0c3" y="448.56"/>
      </g>
     </g>
     <g id="text_10">
      <!-- 0 -->
      <g transform="translate(107.5475 455.398594)scale(0.18 -0.18)">
       <use xlink:href="#DejaVuSans-30"/>
      </g>
     </g>
    </g>
    <g id="ytick_2">
     <g id="line2d_10">
      <g>
       <use style="stroke:#000000;stroke-width:0.8;" x="126" xlink:href="#mcd91b1c0c3" y="384.707369"/>
      </g>
     </g>
     <g id="text_11">
      <!-- 2 -->
      <g transform="translate(107.5475 391.545962)scale(0.18 -0.18)">
       <use xlink:href="#DejaVuSans-32"/>
      </g>
     </g>
    </g>
    <g id="ytick_3">
     <g id="line2d_11">
      <g>
       <use style="stroke:#000000;stroke-width:0.8;" x="126" xlink:href="#mcd91b1c0c3" y="320.854737"/>
      </g>
     </g>
     <g id="text_12">
      <!-- 4 -->
      <g transform="translate(107.5475 327.693331)scale(0.18 -0.18)">
       <use xlink:href="#DejaVuSans-34"/>
      </g>
     </g>
    </g>
    <g id="ytick_4">
     <g id="line2d_12">
      <g>
       <use style="stroke:#000000;stroke-width:0.8;" x="126" xlink:href="#mcd91b1c0c3" y="257.002106"/>
      </g>
     </g>
     <g id="text_13">
      <!-- 6 -->
      <g transform="translate(107.5475 263.8407)scale(0.18 -0.18)">
       <defs>
        <path d="M 2113 2584 
Q 1688 2584 1439 2293 
Q 1191 2003 1191 1497 
Q 1191 994 1439 701 
Q 1688 409 2113 409 
Q 2538 409 2786 701 
Q 3034 994 3034 1497 
Q 3034 2003 2786 2293 
Q 2538 2584 2113 2584 
z
M 3366 4563 
L 3366 3988 
Q 3128 4100 2886 4159 
Q 2644 4219 2406 4219 
Q 1781 4219 1451 3797 
Q 1122 3375 1075 2522 
Q 1259 2794 1537 2939 
Q 1816 3084 2150 3084 
Q 2853 3084 3261 2657 
Q 3669 2231 3669 1497 
Q 3669 778 3244 343 
Q 2819 -91 2113 -91 
Q 1303 -91 875 529 
Q 447 1150 447 2328 
Q 447 3434 972 4092 
Q 1497 4750 2381 4750 
Q 2619 4750 2861 4703 
Q 3103 4656 3366 4563 
z
" id="DejaVuSans-36" transform="scale(0.015625)"/>
       </defs>
       <use xlink:href="#DejaVuSans-36"/>
      </g>
     </g>
    </g>
    <g id="ytick_5">
     <g id="line2d_13">
      <g>
       <use style="stroke:#000000;stroke-width:0.8;" x="126" xlink:href="#mcd91b1c0c3" y="193.149475"/>
      </g>
     </g>
     <g id="text_14">
      <!-- 8 -->
      <g transform="translate(107.5475 199.988069)scale(0.18 -0.18)">
       <defs>
        <path d="M 2034 2216 
Q 1584 2216 1326 1975 
Q 1069 1734 1069 1313 
Q 1069 891 1326 650 
Q 1584 409 2034 409 
Q 2484 409 2743 651 
Q 3003 894 3003 1313 
Q 3003 1734 2745 1975 
Q 2488 2216 2034 2216 
z
M 1403 2484 
Q 997 2584 770 2862 
Q 544 3141 544 3541 
Q 544 4100 942 4425 
Q 1341 4750 2034 4750 
Q 2731 4750 3128 4425 
Q 3525 4100 3525 3541 
Q 3525 3141 3298 2862 
Q 3072 2584 2669 2484 
Q 3125 2378 3379 2068 
Q 3634 1759 3634 1313 
Q 3634 634 3220 271 
Q 2806 -91 2034 -91 
Q 1263 -91 848 271 
Q 434 634 434 1313 
Q 434 1759 690 2068 
Q 947 2378 1403 2484 
z
M 1172 3481 
Q 1172 3119 1398 2916 
Q 1625 2713 2034 2713 
Q 2441 2713 2670 2916 
Q 2900 3119 2900 3481 
Q 2900 3844 2670 4047 
Q 2441 4250 2034 4250 
Q 1625 4250 1398 4047 
Q 1172 3844 1172 3481 
z
" id="DejaVuSans-38" transform="scale(0.015625)"/>
       </defs>
       <use xlink:href="#DejaVuSans-38"/>
      </g>
     </g>
    </g>
    <g id="ytick_6">
     <g id="line2d_14">
      <g>
       <use style="stroke:#000000;stroke-width:0.8;" x="126" xlink:href="#mcd91b1c0c3" y="129.296844"/>
      </g>
     </g>
     <g id="text_15">
      <!-- 10 -->
      <g transform="translate(96.095 136.135437)scale(0.18 -0.18)">
       <use xlink:href="#DejaVuSans-31"/>
       <use x="63.623047" xlink:href="#DejaVuSans-30"/>
      </g>
     </g>
    </g>
    <g id="ytick_7">
     <g id="line2d_15">
      <g>
       <use style="stroke:#000000;stroke-width:0.8;" x="126" xlink:href="#mcd91b1c0c3" y="65.444212"/>
      </g>
     </g>
     <g id="text_16">
      <!-- 12 -->
      <g transform="translate(96.095 72.282806)scale(0.18 -0.18)">
       <use xlink:href="#DejaVuSans-31"/>
       <use x="63.623047" xlink:href="#DejaVuSans-32"/>
      </g>
     </g>
    </g>
    <g id="text_17">
     <!-- Density -->
     <g transform="translate(88.351562 288.735469)rotate(-90)scale(0.18 -0.18)">
      <defs>
       <path d="M 1259 4147 
L 1259 519 
L 2022 519 
Q 2988 519 3436 956 
Q 3884 1394 3884 2338 
Q 3884 3275 3436 3711 
Q 2988 4147 2022 4147 
L 1259 4147 
z
M 628 4666 
L 1925 4666 
Q 3281 4666 3915 4102 
Q 4550 3538 4550 2338 
Q 4550 1131 3912 565 
Q 3275 0 1925 0 
L 628 0 
L 628 4666 
z
" id="DejaVuSans-44" transform="scale(0.015625)"/>
       <path d="M 2834 3397 
L 2834 2853 
Q 2591 2978 2328 3040 
Q 2066 3103 1784 3103 
Q 1356 3103 1142 2972 
Q 928 2841 928 2578 
Q 928 2378 1081 2264 
Q 1234 2150 1697 2047 
L 1894 2003 
Q 2506 1872 2764 1633 
Q 3022 1394 3022 966 
Q 3022 478 2636 193 
Q 2250 -91 1575 -91 
Q 1294 -91 989 -36 
Q 684 19 347 128 
L 347 722 
Q 666 556 975 473 
Q 1284 391 1588 391 
Q 1994 391 2212 530 
Q 2431 669 2431 922 
Q 2431 1156 2273 1281 
Q 2116 1406 1581 1522 
L 1381 1569 
Q 847 1681 609 1914 
Q 372 2147 372 2553 
Q 372 3047 722 3315 
Q 1072 3584 1716 3584 
Q 2034 3584 2315 3537 
Q 2597 3491 2834 3397 
z
" id="DejaVuSans-73" transform="scale(0.015625)"/>
       <path d="M 2059 -325 
Q 1816 -950 1584 -1140 
Q 1353 -1331 966 -1331 
L 506 -1331 
L 506 -850 
L 844 -850 
Q 1081 -850 1212 -737 
Q 1344 -625 1503 -206 
L 1606 56 
L 191 3500 
L 800 3500 
L 1894 763 
L 2988 3500 
L 3597 3500 
L 2059 -325 
z
" id="DejaVuSans-79" transform="scale(0.015625)"/>
      </defs>
      <use xlink:href="#DejaVuSans-44"/>
      <use x="77.001953" xlink:href="#DejaVuSans-65"/>
      <use x="138.525391" xlink:href="#DejaVuSans-6e"/>
      <use x="201.904297" xlink:href="#DejaVuSans-73"/>
      <use x="254.003906" xlink:href="#DejaVuSans-69"/>
      <use x="281.787109" xlink:href="#DejaVuSans-74"/>
      <use x="320.996094" xlink:href="#DejaVuSans-79"/>
     </g>
    </g>
   </g>
   <g id="line2d_16">
    <path clip-path="url(#pfe37a8dec5)" d="M 609.324542 448.540675 
L 617.235086 448.377481 
L 621.190358 448.100663 
L 623.827206 447.767824 
L 626.464054 447.26502 
L 629.100902 446.547542 
L 631.73775 445.576394 
L 634.374597 444.322688 
L 637.011445 442.768773 
L 639.648293 440.90566 
L 642.285141 438.728154 
L 644.921989 436.230167 
L 647.558837 433.402186 
L 650.195685 430.23135 
L 652.832533 426.70349 
L 655.469381 422.806832 
L 658.106229 418.538489 
L 660.743077 413.915398 
L 664.698348 406.442242 
L 671.290468 393.677616 
L 673.927316 389.045134 
L 676.564164 384.989283 
L 677.882588 383.222124 
L 679.201012 381.641758 
L 680.519436 380.250477 
L 681.83786 379.044931 
L 683.156284 378.016917 
L 684.474708 377.154559 
L 685.793132 376.443765 
L 687.111556 375.869805 
L 689.748404 375.07942 
L 692.385251 374.706012 
L 695.022099 374.730965 
L 696.340523 374.902739 
L 697.658947 375.19067 
L 698.977371 375.602914 
L 700.295795 376.146407 
L 701.614219 376.825449 
L 702.932643 377.640489 
L 705.569491 379.656233 
L 708.206339 382.097471 
L 717.435307 391.358471 
L 720.072154 393.526503 
L 722.709002 395.382813 
L 726.664274 397.768456 
L 733.256394 401.631193 
L 737.211666 404.230803 
L 742.485362 407.987656 
L 747.759057 412.026947 
L 751.714329 415.361719 
L 755.669601 419.04283 
L 760.943297 424.391878 
L 768.853841 432.574624 
L 772.809113 436.339052 
L 775.445961 438.602075 
L 778.082808 440.608236 
L 780.719656 442.31894 
L 783.356504 443.714339 
L 785.993352 444.796697 
L 788.6302 445.589071 
L 791.267048 446.130304 
L 793.903896 446.468465 
L 797.859168 446.706843 
L 805.769711 446.794944 
L 811.043407 446.941291 
L 817.635527 447.366323 
L 825.546071 447.851558 
L 830.819767 447.931332 
L 845.32243 447.905167 
L 869.054061 448.5435 
L 871.690909 448.55216 
L 871.690909 448.55216 
" style="fill:none;stroke:#ff944d;stroke-linecap:square;stroke-width:2;"/>
   </g>
   <g id="line2d_17">
    <path clip-path="url(#pfe37a8dec5)" d="M 298.65004 448.540619 
L 302.255922 448.396173 
L 304.058863 448.165402 
L 305.861804 447.713721 
L 307.063764 447.235271 
L 308.265725 446.578857 
L 309.467686 445.722994 
L 310.669646 444.661953 
L 312.472587 442.727553 
L 318.48239 435.680434 
L 320.886311 433.093124 
L 322.088272 431.332878 
L 323.290232 428.814471 
L 323.891212 427.149682 
L 325.093173 422.784714 
L 326.295134 416.824896 
L 327.497094 409.181111 
L 328.699055 400.00331 
L 330.501996 384.258752 
L 333.506897 357.527766 
L 335.309838 343.661852 
L 337.112779 331.839738 
L 338.91572 321.534385 
L 340.718661 312.339319 
L 342.521601 304.392847 
L 343.723562 300.002376 
L 344.925523 296.439571 
L 346.127483 293.6922 
L 347.329444 291.67278 
L 348.531404 290.271131 
L 349.733365 289.409631 
L 350.334345 289.174278 
L 350.935325 289.073701 
L 351.536306 289.115598 
L 352.137286 289.310109 
L 352.738266 289.668929 
L 353.339247 290.204495 
L 353.940227 290.929349 
L 354.541207 291.855664 
L 355.743168 294.357674 
L 356.945128 297.790155 
L 358.147089 302.211443 
L 359.349049 307.649993 
L 360.55101 314.093301 
L 362.353951 325.481222 
L 364.757872 343.004189 
L 367.762773 365.456239 
L 369.565714 377.226155 
L 370.767675 383.880447 
L 371.969636 389.529822 
L 373.171596 394.274049 
L 374.373557 398.294705 
L 376.176498 403.416556 
L 378.580419 409.384774 
L 382.1863 417.613254 
L 386.393162 426.540867 
L 391.201005 436.331583 
L 393.003946 439.624454 
L 394.806886 442.384907 
L 396.008847 443.837741 
L 397.210808 444.952216 
L 398.412768 445.739916 
L 399.614729 446.243861 
L 400.816689 446.531629 
L 403.22061 446.777711 
L 406.225512 447.108481 
L 414.038256 448.39092 
L 417.644137 448.535137 
L 418.245118 448.54295 
L 418.245118 448.54295 
" style="fill:none;stroke:#ff99ff;stroke-linecap:square;stroke-width:2;"/>
   </g>
   <g id="line2d_18">
    <path clip-path="url(#pfe37a8dec5)" d="M 161.509091 448.51066 
L 162.720919 448.352914 
L 163.62979 448.032064 
L 164.235705 447.637228 
L 164.841619 447.027977 
L 165.447533 446.141466 
L 166.053447 444.924553 
L 166.962318 442.422369 
L 167.87119 439.153321 
L 169.083018 433.899421 
L 170.597803 426.227823 
L 171.809632 418.789198 
L 173.02146 409.806362 
L 175.14216 391.836359 
L 176.353988 379.728467 
L 177.262859 367.656797 
L 178.171731 351.278502 
L 179.080602 329.846881 
L 180.29243 294.533806 
L 183.927915 182.052267 
L 185.139743 152.766345 
L 186.048615 136.540114 
L 186.654529 129.590488 
L 186.957486 127.494056 
L 187.260443 126.386017 
L 187.5634 126.294391 
L 187.866357 127.223752 
L 188.169314 129.153222 
L 188.775228 135.799792 
L 189.381143 145.572473 
L 190.592971 170.485633 
L 191.804799 195.324659 
L 192.713671 210.047936 
L 193.622542 220.581081 
L 194.531413 228.065777 
L 196.046199 239.791761 
L 196.95507 249.486224 
L 197.863941 261.960203 
L 199.075769 281.987476 
L 200.893512 316.135359 
L 203.620126 368.370115 
L 204.831954 386.855376 
L 205.740825 397.571051 
L 206.649696 405.914522 
L 207.861525 414.606202 
L 209.37631 423.577972 
L 210.588139 429.68972 
L 211.49701 433.425957 
L 212.405881 436.354088 
L 213.314752 438.631221 
L 214.829538 441.740549 
L 216.64728 445.083721 
L 217.556151 446.415867 
L 218.465023 447.380978 
L 219.373894 447.985757 
L 220.282765 448.313191 
L 221.494594 448.494329 
L 221.797551 448.514487 
L 221.797551 448.514487 
" style="fill:none;stroke:#00e6e6;stroke-linecap:square;stroke-width:2;"/>
   </g>
   <g id="line2d_19">
    <path clip-path="url(#pfe37a8dec5)" d="M 335.137899 448.52998 
L 336.874589 448.392313 
L 338.26394 448.047711 
L 339.305954 447.534838 
L 340.347968 446.733048 
L 341.389982 445.635653 
L 343.126671 443.359982 
L 345.905375 439.380282 
L 346.600051 438.099835 
L 347.294727 436.435966 
L 347.989402 434.185092 
L 348.684078 431.139675 
L 349.378754 427.11591 
L 350.07343 421.973588 
L 351.115444 411.983899 
L 352.157458 399.214191 
L 353.546809 378.296775 
L 355.978175 336.220909 
L 363.61961 206.34732 
L 364.314285 198.983814 
L 365.008961 193.820814 
L 365.703637 190.846468 
L 366.050975 190.150257 
L 366.398313 189.955871 
L 366.745651 190.237346 
L 367.092989 190.961635 
L 367.787665 193.56202 
L 368.829679 199.419447 
L 370.21903 207.639069 
L 370.913706 210.713639 
L 371.608382 212.873733 
L 373.345072 217.197503 
L 374.039748 220.443975 
L 374.734424 225.519129 
L 375.429099 232.622838 
L 376.471113 246.598325 
L 378.207803 274.719163 
L 381.681182 335.394156 
L 384.112548 377.340676 
L 385.5019 397.280465 
L 386.543913 409.659123 
L 387.585927 419.787826 
L 388.627941 427.56294 
L 389.322617 431.36832 
L 390.017293 434.064384 
L 390.711969 435.717886 
L 391.059307 436.196447 
L 391.406644 436.47564 
L 391.753982 436.585517 
L 392.448658 436.434065 
L 394.185348 435.595012 
L 394.532686 435.61157 
L 394.880024 435.743981 
L 395.5747 436.390988 
L 396.269376 437.532898 
L 397.311389 439.921527 
L 399.048079 444.193842 
L 400.090093 446.119452 
L 400.784769 447.021066 
L 401.479445 447.645441 
L 402.17412 448.047967 
L 403.216134 448.368323 
L 404.258148 448.497351 
L 404.258148 448.497351 
" style="fill:none;stroke:#33ff33;stroke-linecap:square;stroke-width:2;"/>
   </g>
   <g id="patch_66">
    <path d="M 126 448.56 
L 126 60.48 
" style="fill:none;stroke:#000000;stroke-linecap:square;stroke-linejoin:miter;stroke-width:0.8;"/>
   </g>
   <g id="patch_67">
    <path d="M 907.2 448.56 
L 907.2 60.48 
" style="fill:none;stroke:#000000;stroke-linecap:square;stroke-linejoin:miter;stroke-width:0.8;"/>
   </g>
   <g id="patch_68">
    <path d="M 126 448.56 
L 907.2 448.56 
" style="fill:none;stroke:#000000;stroke-linecap:square;stroke-linejoin:miter;stroke-width:0.8;"/>
   </g>
   <g id="patch_69">
    <path d="M 126 60.48 
L 907.2 60.48 
" style="fill:none;stroke:#000000;stroke-linecap:square;stroke-linejoin:miter;stroke-width:0.8;"/>
   </g>
   <g id="text_18">
    <!-- The fitted histogram of the average waiting time using 350 simulations at rho= 0.8 -->
    <g transform="translate(140.889375 54.48)scale(0.18 -0.18)">
     <defs>
      <path d="M -19 4666 
L 3928 4666 
L 3928 4134 
L 2272 4134 
L 2272 0 
L 1638 0 
L 1638 4134 
L -19 4134 
L -19 4666 
z
" id="DejaVuSans-54" transform="scale(0.015625)"/>
      <path d="M 3513 2113 
L 3513 0 
L 2938 0 
L 2938 2094 
Q 2938 2591 2744 2837 
Q 2550 3084 2163 3084 
Q 1697 3084 1428 2787 
Q 1159 2491 1159 1978 
L 1159 0 
L 581 0 
L 581 4863 
L 1159 4863 
L 1159 2956 
Q 1366 3272 1645 3428 
Q 1925 3584 2291 3584 
Q 2894 3584 3203 3211 
Q 3513 2838 3513 2113 
z
" id="DejaVuSans-68" transform="scale(0.015625)"/>
      <path d="M 2375 4863 
L 2375 4384 
L 1825 4384 
Q 1516 4384 1395 4259 
Q 1275 4134 1275 3809 
L 1275 3500 
L 2222 3500 
L 2222 3053 
L 1275 3053 
L 1275 0 
L 697 0 
L 697 3053 
L 147 3053 
L 147 3500 
L 697 3500 
L 697 3744 
Q 697 4328 969 4595 
Q 1241 4863 1831 4863 
L 2375 4863 
z
" id="DejaVuSans-66" transform="scale(0.015625)"/>
      <path d="M 2906 2969 
L 2906 4863 
L 3481 4863 
L 3481 0 
L 2906 0 
L 2906 525 
Q 2725 213 2448 61 
Q 2172 -91 1784 -91 
Q 1150 -91 751 415 
Q 353 922 353 1747 
Q 353 2572 751 3078 
Q 1150 3584 1784 3584 
Q 2172 3584 2448 3432 
Q 2725 3281 2906 2969 
z
M 947 1747 
Q 947 1113 1208 752 
Q 1469 391 1925 391 
Q 2381 391 2643 752 
Q 2906 1113 2906 1747 
Q 2906 2381 2643 2742 
Q 2381 3103 1925 3103 
Q 1469 3103 1208 2742 
Q 947 2381 947 1747 
z
" id="DejaVuSans-64" transform="scale(0.015625)"/>
      <path d="M 1959 3097 
Q 1497 3097 1228 2736 
Q 959 2375 959 1747 
Q 959 1119 1226 758 
Q 1494 397 1959 397 
Q 2419 397 2687 759 
Q 2956 1122 2956 1747 
Q 2956 2369 2687 2733 
Q 2419 3097 1959 3097 
z
M 1959 3584 
Q 2709 3584 3137 3096 
Q 3566 2609 3566 1747 
Q 3566 888 3137 398 
Q 2709 -91 1959 -91 
Q 1206 -91 779 398 
Q 353 888 353 1747 
Q 353 2609 779 3096 
Q 1206 3584 1959 3584 
z
" id="DejaVuSans-6f" transform="scale(0.015625)"/>
      <path d="M 2631 2963 
Q 2534 3019 2420 3045 
Q 2306 3072 2169 3072 
Q 1681 3072 1420 2755 
Q 1159 2438 1159 1844 
L 1159 0 
L 581 0 
L 581 3500 
L 1159 3500 
L 1159 2956 
Q 1341 3275 1631 3429 
Q 1922 3584 2338 3584 
Q 2397 3584 2469 3576 
Q 2541 3569 2628 3553 
L 2631 2963 
z
" id="DejaVuSans-72" transform="scale(0.015625)"/>
      <path d="M 191 3500 
L 800 3500 
L 1894 563 
L 2988 3500 
L 3597 3500 
L 2284 0 
L 1503 0 
L 191 3500 
z
" id="DejaVuSans-76" transform="scale(0.015625)"/>
      <path d="M 544 1381 
L 544 3500 
L 1119 3500 
L 1119 1403 
Q 1119 906 1312 657 
Q 1506 409 1894 409 
Q 2359 409 2629 706 
Q 2900 1003 2900 1516 
L 2900 3500 
L 3475 3500 
L 3475 0 
L 2900 0 
L 2900 538 
Q 2691 219 2414 64 
Q 2138 -91 1772 -91 
Q 1169 -91 856 284 
Q 544 659 544 1381 
z
M 1991 3584 
L 1991 3584 
z
" id="DejaVuSans-75" transform="scale(0.015625)"/>
      <path d="M 603 4863 
L 1178 4863 
L 1178 0 
L 603 0 
L 603 4863 
z
" id="DejaVuSans-6c" transform="scale(0.015625)"/>
      <path d="M 678 2906 
L 4684 2906 
L 4684 2381 
L 678 2381 
L 678 2906 
z
M 678 1631 
L 4684 1631 
L 4684 1100 
L 678 1100 
L 678 1631 
z
" id="DejaVuSans-3d" transform="scale(0.015625)"/>
     </defs>
     <use xlink:href="#DejaVuSans-54"/>
     <use x="61.083984" xlink:href="#DejaVuSans-68"/>
     <use x="124.462891" xlink:href="#DejaVuSans-65"/>
     <use x="185.986328" xlink:href="#DejaVuSans-20"/>
     <use x="217.773438" xlink:href="#DejaVuSans-66"/>
     <use x="252.978516" xlink:href="#DejaVuSans-69"/>
     <use x="280.761719" xlink:href="#DejaVuSans-74"/>
     <use x="319.970703" xlink:href="#DejaVuSans-74"/>
     <use x="359.179688" xlink:href="#DejaVuSans-65"/>
     <use x="420.703125" xlink:href="#DejaVuSans-64"/>
     <use x="484.179688" xlink:href="#DejaVuSans-20"/>
     <use x="515.966797" xlink:href="#DejaVuSans-68"/>
     <use x="579.345703" xlink:href="#DejaVuSans-69"/>
     <use x="607.128906" xlink:href="#DejaVuSans-73"/>
     <use x="659.228516" xlink:href="#DejaVuSans-74"/>
     <use x="698.4375" xlink:href="#DejaVuSans-6f"/>
     <use x="759.619141" xlink:href="#DejaVuSans-67"/>
     <use x="823.095703" xlink:href="#DejaVuSans-72"/>
     <use x="864.208984" xlink:href="#DejaVuSans-61"/>
     <use x="925.488281" xlink:href="#DejaVuSans-6d"/>
     <use x="1022.900391" xlink:href="#DejaVuSans-20"/>
     <use x="1054.6875" xlink:href="#DejaVuSans-6f"/>
     <use x="1115.869141" xlink:href="#DejaVuSans-66"/>
     <use x="1151.074219" xlink:href="#DejaVuSans-20"/>
     <use x="1182.861328" xlink:href="#DejaVuSans-74"/>
     <use x="1222.070312" xlink:href="#DejaVuSans-68"/>
     <use x="1285.449219" xlink:href="#DejaVuSans-65"/>
     <use x="1346.972656" xlink:href="#DejaVuSans-20"/>
     <use x="1378.759766" xlink:href="#DejaVuSans-61"/>
     <use x="1440.039062" xlink:href="#DejaVuSans-76"/>
     <use x="1499.21875" xlink:href="#DejaVuSans-65"/>
     <use x="1560.742188" xlink:href="#DejaVuSans-72"/>
     <use x="1601.855469" xlink:href="#DejaVuSans-61"/>
     <use x="1663.134766" xlink:href="#DejaVuSans-67"/>
     <use x="1726.611328" xlink:href="#DejaVuSans-65"/>
     <use x="1788.134766" xlink:href="#DejaVuSans-20"/>
     <use x="1819.921875" xlink:href="#DejaVuSans-77"/>
     <use x="1901.708984" xlink:href="#DejaVuSans-61"/>
     <use x="1962.988281" xlink:href="#DejaVuSans-69"/>
     <use x="1990.771484" xlink:href="#DejaVuSans-74"/>
     <use x="2029.980469" xlink:href="#DejaVuSans-69"/>
     <use x="2057.763672" xlink:href="#DejaVuSans-6e"/>
     <use x="2121.142578" xlink:href="#DejaVuSans-67"/>
     <use x="2184.619141" xlink:href="#DejaVuSans-20"/>
     <use x="2216.40625" xlink:href="#DejaVuSans-74"/>
     <use x="2255.615234" xlink:href="#DejaVuSans-69"/>
     <use x="2283.398438" xlink:href="#DejaVuSans-6d"/>
     <use x="2380.810547" xlink:href="#DejaVuSans-65"/>
     <use x="2442.333984" xlink:href="#DejaVuSans-20"/>
     <use x="2474.121094" xlink:href="#DejaVuSans-75"/>
     <use x="2537.5" xlink:href="#DejaVuSans-73"/>
     <use x="2589.599609" xlink:href="#DejaVuSans-69"/>
     <use x="2617.382812" xlink:href="#DejaVuSans-6e"/>
     <use x="2680.761719" xlink:href="#DejaVuSans-67"/>
     <use x="2744.238281" xlink:href="#DejaVuSans-20"/>
     <use x="2776.025391" xlink:href="#DejaVuSans-33"/>
     <use x="2839.648438" xlink:href="#DejaVuSans-35"/>
     <use x="2903.271484" xlink:href="#DejaVuSans-30"/>
     <use x="2966.894531" xlink:href="#DejaVuSans-20"/>
     <use x="2998.681641" xlink:href="#DejaVuSans-73"/>
     <use x="3050.78125" xlink:href="#DejaVuSans-69"/>
     <use x="3078.564453" xlink:href="#DejaVuSans-6d"/>
     <use x="3175.976562" xlink:href="#DejaVuSans-75"/>
     <use x="3239.355469" xlink:href="#DejaVuSans-6c"/>
     <use x="3267.138672" xlink:href="#DejaVuSans-61"/>
     <use x="3328.417969" xlink:href="#DejaVuSans-74"/>
     <use x="3367.626953" xlink:href="#DejaVuSans-69"/>
     <use x="3395.410156" xlink:href="#DejaVuSans-6f"/>
     <use x="3456.591797" xlink:href="#DejaVuSans-6e"/>
     <use x="3519.970703" xlink:href="#DejaVuSans-73"/>
     <use x="3572.070312" xlink:href="#DejaVuSans-20"/>
     <use x="3603.857422" xlink:href="#DejaVuSans-61"/>
     <use x="3665.136719" xlink:href="#DejaVuSans-74"/>
     <use x="3704.345703" xlink:href="#DejaVuSans-20"/>
     <use x="3736.132812" xlink:href="#DejaVuSans-72"/>
     <use x="3775.496094" xlink:href="#DejaVuSans-68"/>
     <use x="3838.875" xlink:href="#DejaVuSans-6f"/>
     <use x="3900.056641" xlink:href="#DejaVuSans-3d"/>
     <use x="3983.845703" xlink:href="#DejaVuSans-20"/>
     <use x="4015.632812" xlink:href="#DejaVuSans-30"/>
     <use x="4079.255859" xlink:href="#DejaVuSans-2e"/>
     <use x="4111.042969" xlink:href="#DejaVuSans-38"/>
    </g>
   </g>
   <g id="legend_1">
    <g id="patch_70">
     <path d="M 741.912188 180.5625 
L 894.6 180.5625 
Q 898.2 180.5625 898.2 176.9625 
L 898.2 73.08 
Q 898.2 69.48 894.6 69.48 
L 741.912188 69.48 
Q 738.312188 69.48 738.312188 73.08 
L 738.312188 176.9625 
Q 738.312188 180.5625 741.912188 180.5625 
z
" style="fill:#ffffff;opacity:0.8;stroke:#cccccc;stroke-linejoin:miter;"/>
    </g>
    <g id="patch_71">
     <path d="M 745.512188 90.357188 
L 781.512188 90.357188 
L 781.512188 77.757188 
L 745.512188 77.757188 
z
" style="fill:#ff944d;opacity:0.4;"/>
    </g>
    <g id="text_19">
     <!-- M/M/1 -->
     <g transform="translate(795.912188 90.357188)scale(0.18 -0.18)">
      <defs>
       <path d="M 1625 4666 
L 2156 4666 
L 531 -594 
L 0 -594 
L 1625 4666 
z
" id="DejaVuSans-2f" transform="scale(0.015625)"/>
      </defs>
      <use xlink:href="#DejaVuSans-4d"/>
      <use x="86.279297" xlink:href="#DejaVuSans-2f"/>
      <use x="119.970703" xlink:href="#DejaVuSans-4d"/>
      <use x="206.25" xlink:href="#DejaVuSans-2f"/>
      <use x="239.941406" xlink:href="#DejaVuSans-31"/>
     </g>
    </g>
    <g id="patch_72">
     <path d="M 745.512188 116.777812 
L 781.512188 116.777812 
L 781.512188 104.177812 
L 745.512188 104.177812 
z
" style="fill:#ff99ff;opacity:0.4;"/>
    </g>
    <g id="text_20">
     <!-- M/M/2 -->
     <g transform="translate(795.912188 116.777812)scale(0.18 -0.18)">
      <use xlink:href="#DejaVuSans-4d"/>
      <use x="86.279297" xlink:href="#DejaVuSans-2f"/>
      <use x="119.970703" xlink:href="#DejaVuSans-4d"/>
      <use x="206.25" xlink:href="#DejaVuSans-2f"/>
      <use x="239.941406" xlink:href="#DejaVuSans-32"/>
     </g>
    </g>
    <g id="patch_73">
     <path d="M 745.512188 143.198438 
L 781.512188 143.198438 
L 781.512188 130.598438 
L 745.512188 130.598438 
z
" style="fill:#00e6e6;opacity:0.4;"/>
    </g>
    <g id="text_21">
     <!-- M/M/4 -->
     <g transform="translate(795.912188 143.198438)scale(0.18 -0.18)">
      <use xlink:href="#DejaVuSans-4d"/>
      <use x="86.279297" xlink:href="#DejaVuSans-2f"/>
      <use x="119.970703" xlink:href="#DejaVuSans-4d"/>
      <use x="206.25" xlink:href="#DejaVuSans-2f"/>
      <use x="239.941406" xlink:href="#DejaVuSans-34"/>
     </g>
    </g>
    <g id="patch_74">
     <path d="M 745.512188 169.619062 
L 781.512188 169.619062 
L 781.512188 157.019062 
L 745.512188 157.019062 
z
" style="fill:#33ff33;opacity:0.4;"/>
    </g>
    <g id="text_22">
     <!-- M/M/1-Prio -->
     <g transform="translate(795.912188 169.619062)scale(0.18 -0.18)">
      <defs>
       <path d="M 313 2009 
L 1997 2009 
L 1997 1497 
L 313 1497 
L 313 2009 
z
" id="DejaVuSans-2d" transform="scale(0.015625)"/>
       <path d="M 1259 4147 
L 1259 2394 
L 2053 2394 
Q 2494 2394 2734 2622 
Q 2975 2850 2975 3272 
Q 2975 3691 2734 3919 
Q 2494 4147 2053 4147 
L 1259 4147 
z
M 628 4666 
L 2053 4666 
Q 2838 4666 3239 4311 
Q 3641 3956 3641 3272 
Q 3641 2581 3239 2228 
Q 2838 1875 2053 1875 
L 1259 1875 
L 1259 0 
L 628 0 
L 628 4666 
z
" id="DejaVuSans-50" transform="scale(0.015625)"/>
      </defs>
      <use xlink:href="#DejaVuSans-4d"/>
      <use x="86.279297" xlink:href="#DejaVuSans-2f"/>
      <use x="119.970703" xlink:href="#DejaVuSans-4d"/>
      <use x="206.25" xlink:href="#DejaVuSans-2f"/>
      <use x="239.941406" xlink:href="#DejaVuSans-31"/>
      <use x="303.564453" xlink:href="#DejaVuSans-2d"/>
      <use x="339.648438" xlink:href="#DejaVuSans-50"/>
      <use x="398.201172" xlink:href="#DejaVuSans-72"/>
      <use x="439.314453" xlink:href="#DejaVuSans-69"/>
      <use x="467.097656" xlink:href="#DejaVuSans-6f"/>
     </g>
    </g>
   </g>
  </g>
 </g>
 <defs>
  <clipPath id="pfe37a8dec5">
   <rect height="388.08" width="781.2" x="126" y="60.48"/>
  </clipPath>
 </defs>
</svg>
